%YAML 1.1
%TAG !u! tag:unity3d.com,2011:
--- !u!114 &11400000
MonoBehaviour:
  m_ObjectHideFlags: 0
  m_CorrespondingSourceObject: {fileID: 0}
  m_PrefabInstance: {fileID: 0}
  m_PrefabAsset: {fileID: 0}
  m_GameObject: {fileID: 0}
  m_Enabled: 1
  m_EditorHideFlags: 0
  m_Script: {fileID: 11500000, guid: bbb281ee3bf0b054c82ac2347e9e782c, type: 3}
  m_Name: Default Local Group
  m_EditorClassIdentifier: 
  m_GroupName: Default Local Group
  m_Data:
    m_SerializedData: []
  m_GUID: c838d731b0c494832b1dbcda6ba2272f
  m_SerializeEntries: []
  m_ReadOnly: 0
  m_Settings: {fileID: 11400000, guid: bed32fa3e290c41b89b5486f74cac792, type: 2}
  m_SchemaSet:
    m_Schemas:
    - {fileID: 11400000, guid: 7dc396aeae3d74e7b97930f4b1c30783, type: 2}
    - {fileID: 11400000, guid: 5135e2dab93e54c8c9b964b949dc683f, type: 2}
